# energy, eels_NLFC_w, eels_LFC_w
0.000000, -0.000000, -0.000000
0.010021, 0.000136, 0.000158
0.020083, 0.000253, 0.000309
0.030188, 0.000350, 0.000452
0.040334, 0.000437, 0.000592
0.050523, 0.000522, 0.000733
0.060755, 0.000606, 0.000874
0.071030, 0.000688, 0.001015
0.081348, 0.000769, 0.001158
0.091709, 0.000844, 0.001302
0.102115, 0.000910, 0.001442
0.112564, 0.000970, 0.001582
0.123058, 0.001033, 0.001725
0.133597, 0.001106, 0.001877
0.144181, 0.001179, 0.002032
0.154809, 0.001241, 0.002185
0.165484, 0.001294, 0.002346
0.176204, 0.001350, 0.002517
0.186970, 0.001412, 0.002691
0.197783, 0.001487, 0.002880
0.208642, 0.001564, 0.003085
0.219549, 0.001628, 0.003297
0.230502, 0.001690, 0.003538
0.241504, 0.001770, 0.003821
0.252553, 0.001870, 0.004140
0.263651, 0.001998, 0.004518
0.274797, 0.002167, 0.004994
0.285992, 0.002382, 0.005610
0.297237, 0.002642, 0.006387
0.308531, 0.002943, 0.007302
0.319874, 0.003239, 0.008235
0.331268, 0.003403, 0.008830
0.342713, 0.003350, 0.008662
0.354208, 0.003127, 0.007758
0.365755, 0.002845, 0.006570
0.377353, 0.002620, 0.005568
0.389003, 0.002478, 0.004887
0.400706, 0.002410, 0.004483
0.412461, 0.002393, 0.004287
0.424269, 0.002393, 0.004200
0.436130, 0.002397, 0.004150
0.448045, 0.002390, 0.004050
0.460014, 0.002347, 0.003840
0.472038, 0.002276, 0.003532
0.484116, 0.002197, 0.003203
0.496249, 0.002109, 0.002897
0.508438, 0.002012, 0.002614
0.520683, 0.001916, 0.002370
0.532985, 0.001814, 0.002142
0.545343, 0.001712, 0.001944
0.557758, 0.001615, 0.001783
0.570230, 0.001513, 0.001633
0.582761, 0.001396, 0.001484
0.595349, 0.001273, 0.001335
0.607997, 0.001189, 0.001227
0.620704, 0.001157, 0.001172
0.633470, 0.001157, 0.001155
0.646296, 0.001175, 0.001158
0.659182, 0.001210, 0.001180
0.672130, 0.001268, 0.001224
0.685138, 0.001339, 0.001281
0.698208, 0.001412, 0.001339
0.711341, 0.001500, 0.001408
0.724535, 0.001622, 0.001502
0.737793, 0.001763, 0.001615
0.751115, 0.001883, 0.001713
0.764500, 0.002018, 0.001829
0.777949, 0.002217, 0.001995
0.791464, 0.002442, 0.002171
0.805044, 0.002669, 0.002345
0.818689, 0.002984, 0.002593
0.832401, 0.003337, 0.002872
0.846180, 0.003692, 0.003153
0.860025, 0.004172, 0.003540
0.873939, 0.004659, 0.003969
0.887921, 0.004991, 0.004331
0.901971, 0.005250, 0.004645
0.916091, 0.005559, 0.004977
0.930281, 0.006042, 0.005445
0.944540, 0.006602, 0.006014
0.958871, 0.006872, 0.006385
0.973273, 0.006687, 0.006410
0.987747, 0.005969, 0.005959
1.002293, 0.005105, 0.005247
1.016912, 0.004522, 0.004642
1.031604, 0.004209, 0.004262
1.046371, 0.004054, 0.004056
1.061212, 0.004001, 0.003952
1.076129, 0.004054, 0.003941
1.091121, 0.004103, 0.003932
1.106189, 0.004069, 0.003855
1.121335, 0.004139, 0.003876
1.136558, 0.004437, 0.004108
1.151859, 0.004794, 0.004399
1.167238, 0.004930, 0.004493
1.182697, 0.005125, 0.004638
1.198236, 0.005535, 0.004967
1.213856, 0.006040, 0.005391
1.229556, 0.006347, 0.005658
1.245339, 0.006823, 0.006075
1.261204, 0.007504, 0.006633
1.277152, 0.008139, 0.007112
1.293184, 0.008896, 0.007705
1.309300, 0.010116, 0.008678
1.325501, 0.011384, 0.009641
1.341788, 0.012581, 0.010525
1.358162, 0.014076, 0.011654
1.374622, 0.015424, 0.012657
1.391171, 0.016699, 0.013699
1.407807, 0.018025, 0.014924
1.424534, 0.019317, 0.016073
1.441350, 0.020680, 0.017258
1.458257, 0.021494, 0.018101
1.475255, 0.021845, 0.018511
1.492345, 0.022791, 0.019291
1.509529, 0.024520, 0.020688
1.526806, 0.026706, 0.022524
1.544177, 0.029132, 0.024620
1.561644, 0.031511, 0.026623
1.579207, 0.034349, 0.029003
1.596866, 0.038412, 0.032454
1.614623, 0.042457, 0.035977
1.632479, 0.046158, 0.039199
1.650434, 0.049449, 0.041942
1.668489, 0.053092, 0.044933
1.686644, 0.057414, 0.048646
1.704902, 0.061082, 0.051872
1.723262, 0.065121, 0.055379
1.741726, 0.069891, 0.059450
1.760294, 0.075251, 0.064146
1.778967, 0.078236, 0.066889
1.797746, 0.078925, 0.067361
1.816633, 0.080274, 0.068510
1.835627, 0.083316, 0.071190
1.854731, 0.088221, 0.075290
1.873944, 0.091465, 0.078235
1.893268, 0.093331, 0.080304
1.912703, 0.096181, 0.082924
1.932252, 0.097719, 0.084215
1.951914, 0.098727, 0.085061
1.971691, 0.099738, 0.085893
1.991583, 0.100161, 0.086312
2.011593, 0.103392, 0.089023
2.031720, 0.110015, 0.094359
2.051965, 0.114756, 0.098410
2.072331, 0.117183, 0.100757
2.092818, 0.118336, 0.101704
2.113426, 0.117307, 0.100597
2.134158, 0.117610, 0.100737
2.155014, 0.120894, 0.103625
2.175995, 0.124815, 0.107187
2.197103, 0.129667, 0.111385
2.218338, 0.132891, 0.114022
2.239702, 0.132916, 0.113690
2.261196, 0.134580, 0.115091
2.282821, 0.138456, 0.118715
2.304578, 0.144930, 0.124122
2.326469, 0.150447, 0.128786
2.348495, 0.152990, 0.131050
2.370657, 0.153746, 0.131736
2.392956, 0.154734, 0.132686
2.415393, 0.160305, 0.137505
2.437971, 0.165623, 0.142045
2.460690, 0.165024, 0.141726
2.483551, 0.165494, 0.142545
2.506556, 0.167873, 0.144552
2.529706, 0.172083, 0.147863
2.553003, 0.176549, 0.151583
2.576448, 0.178219, 0.152722
2.600042, 0.179617, 0.154007
2.623787, 0.185755, 0.159424
2.647684, 0.195276, 0.167460
2.671735, 0.201768, 0.172627
2.695942, 0.204604, 0.174955
2.720305, 0.205410, 0.176119
2.744826, 0.206829, 0.177403
2.769507, 0.212483, 0.181842
2.794350, 0.220741, 0.188598
2.819356, 0.226974, 0.193791
2.844526, 0.229594, 0.195744
2.869862, 0.234201, 0.199296
2.895367, 0.236670, 0.200779
2.921040, 0.241351, 0.203678
2.946886, 0.247559, 0.208129
2.972904, 0.249618, 0.209792
2.999096, 0.255548, 0.214605
3.025466, 0.268292, 0.225326
3.052013, 0.276032, 0.232502
3.078741, 0.277942, 0.234361
3.105650, 0.280577, 0.236970
3.132744, 0.278486, 0.235868
3.160023, 0.277478, 0.235083
3.187489, 0.277851, 0.235677
3.215145, 0.283744, 0.240819
3.242993, 0.292234, 0.247626
3.271034, 0.287597, 0.243307
3.299271, 0.284748, 0.241193
3.327705, 0.285200, 0.242408
3.356339, 0.286192, 0.243416
3.385174, 0.289518, 0.245061
3.414214, 0.287480, 0.242686
3.443459, 0.284074, 0.239761
3.472913, 0.292107, 0.246580
3.502577, 0.305569, 0.257652
3.532454, 0.314829, 0.265150
3.562546, 0.310287, 0.261425
3.592856, 0.306442, 0.257690
3.623385, 0.316070, 0.264798
3.654137, 0.332691, 0.277605
3.685113, 0.344512, 0.286606
3.716316, 0.354405, 0.294275
3.747749, 0.358938, 0.298011
3.779413, 0.368388, 0.305989
3.811313, 0.382823, 0.318362
3.843450, 0.403575, 0.335864
3.875826, 0.414757, 0.345873
3.908446, 0.419729, 0.350576
3.941311, 0.425454, 0.356160
3.974424, 0.430565, 0.361622
4.007788, 0.438249, 0.369815
4.041405, 0.435526, 0.368750
4.075280, 0.436129, 0.370977
4.109414, 0.429978, 0.368553
4.143812, 0.421801, 0.363995
4.178475, 0.410176, 0.355454
4.213406, 0.393845, 0.342414
4.248610, 0.398767, 0.347563
4.284089, 0.391976, 0.342325
4.319846, 0.375744, 0.328928
4.355886, 0.354716, 0.312941
4.392210, 0.353629, 0.311380
4.428822, 0.345854, 0.303495
4.465727, 0.335672, 0.294638
4.502927, 0.310253, 0.274856
4.540426, 0.309796, 0.271936
4.578228, 0.333409, 0.289768
4.616336, 0.345875, 0.302059
4.654754, 0.350883, 0.306805
4.693485, 0.358537, 0.312259
4.732535, 0.359946, 0.315055
4.771906, 0.364122, 0.321072
4.811602, 0.359146, 0.318388
4.851628, 0.346502, 0.310236
4.891989, 0.339553, 0.306700
4.932686, 0.338045, 0.308348
4.973727, 0.339134, 0.312143
5.015113, 0.341738, 0.315254
5.056851, 0.345145, 0.318389
5.098944, 0.350669, 0.326911
5.141398, 0.360686, 0.339212
5.184215, 0.366018, 0.341157
5.227403, 0.379876, 0.350121
5.270964, 0.397013, 0.360780
5.314904, 0.402855, 0.358395
5.359229, 0.401390, 0.352817
5.403942, 0.418140, 0.365148
5.449050, 0.439193, 0.378064
5.494558, 0.442835, 0.376944
5.540470, 0.449646, 0.383194
5.586792, 0.471965, 0.401383
5.633530, 0.496096, 0.420151
5.680689, 0.514509, 0.436221
5.728276, 0.533278, 0.451742
5.776295, 0.563176, 0.474120
5.824753, 0.577949, 0.487116
5.873656, 0.605220, 0.511583
5.923010, 0.636616, 0.540170
5.972822, 0.665505, 0.566094
6.023097, 0.682082, 0.581865
6.073842, 0.698754, 0.600676
6.125064, 0.727831, 0.628101
6.176770, 0.751916, 0.646443
6.228966, 0.784471, 0.665912
6.281660, 0.826350, 0.696361
6.334858, 0.849968, 0.719739
6.388569, 0.797829, 0.681221
6.442798, 0.801119, 0.686364
6.497555, 0.802722, 0.693547
6.552846, 0.810345, 0.705534
6.608680, 0.821576, 0.721384
6.665064, 0.817763, 0.724245
6.722006, 0.785159, 0.700649
6.779516, 0.778596, 0.694241
6.837602, 0.796005, 0.708891
6.896271, 0.830084, 0.736054
6.955534, 0.860503, 0.761064
7.015399, 0.878501, 0.777540
7.075875, 0.885384, 0.786099
7.136972, 0.907289, 0.803277
7.198700, 0.908643, 0.803343
7.261067, 0.935865, 0.821908
7.324085, 0.954130, 0.835520
7.387763, 0.952762, 0.838371
7.452112, 0.929942, 0.823066
7.517142, 0.914257, 0.810533
7.582865, 0.889656, 0.787377
7.649292, 0.871287, 0.770113
7.716433, 0.873672, 0.773806
7.784301, 0.862465, 0.763431
7.852907, 0.873493, 0.772583
7.922263, 0.877870, 0.778091
7.992383, 0.874181, 0.777353
8.063278, 0.850693, 0.762533
8.134961, 0.816355, 0.734845
8.207446, 0.814501, 0.730422
8.280746, 0.848022, 0.746200
8.354875, 0.897236, 0.779337
8.429847, 0.925974, 0.799598
8.505677, 0.938526, 0.806791
8.582379, 0.948451, 0.818820
8.659968, 0.966673, 0.842178
8.738461, 0.999173, 0.877284
8.817873, 0.986759, 0.876175
8.898219, 0.986407, 0.879480
8.979518, 0.981140, 0.881545
9.061785, 0.975653, 0.880701
9.145038, 0.995220, 0.892836
9.229295, 0.982979, 0.875629
9.314575, 0.967097, 0.851907
9.400896, 0.977083, 0.859319
9.488276, 0.992756, 0.879821
9.576737, 0.996111, 0.888315
9.666298, 0.990700, 0.887640
9.756979, 0.984898, 0.891431
9.848802, 0.972899, 0.886668
9.941788, 0.993377, 0.885825
10.035960, 1.001208, 0.879868
10.131341, 0.981975, 0.863584
10.227954, 0.955428, 0.844253
10.325822, 0.923781, 0.821645
10.424972, 0.891851, 0.798020
10.525427, 0.879024, 0.791823
10.627214, 0.875657, 0.793263
10.730360, 0.873765, 0.796309
10.834892, 0.867122, 0.789973
10.940837, 0.870716, 0.793435
11.048226, 0.869986, 0.790686
11.157088, 0.869156, 0.792058
11.267452, 0.869460, 0.795538
11.379352, 0.860165, 0.791577
11.492817, 0.834255, 0.769974
11.607883, 0.819493, 0.756699
11.724583, 0.818462, 0.756260
11.842952, 0.805302, 0.746163
11.963026, 0.787048, 0.729782
12.084842, 0.772232, 0.716906
12.208438, 0.759978, 0.702875
12.333854, 0.768964, 0.702492
12.461131, 0.767187, 0.702413
12.590309, 0.736900, 0.677400
12.721432, 0.716470, 0.655155
12.854544, 0.714907, 0.650125
12.989691, 0.720595, 0.654805
13.126919, 0.734019, 0.668831
13.266278, 0.746459, 0.679983
13.407816, 0.756922, 0.688001
13.551587, 0.774305, 0.703886
13.697642, 0.778055, 0.708435
13.846038, 0.770821, 0.705804
13.996830, 0.773960, 0.708087
14.150076, 0.782328, 0.714851
14.305839, 0.787067, 0.719374
14.464179, 0.785926, 0.723090
14.625162, 0.778450, 0.720894
14.788854, 0.783692, 0.722577
14.955324, 0.791777, 0.726584
15.124643, 0.796788, 0.727931
15.296886, 0.808843, 0.736599
15.472128, 0.828547, 0.754048
15.650449, 0.837266, 0.766493
15.831931, 0.845498, 0.775414
16.016658, 0.851407, 0.787845
16.204718, 0.848416, 0.788939
16.396202, 0.840082, 0.787353
16.591205, 0.820463, 0.774767
16.789824, 0.808947, 0.766134
16.992161, 0.809305, 0.770066
17.198322, 0.812393, 0.775369
17.408415, 0.797948, 0.768493
17.622555, 0.765008, 0.742751
17.840859, 0.735695, 0.717664
18.063450, 0.713163, 0.700196
18.290456, 0.695784, 0.684293
18.522009, 0.697923, 0.686253
18.758247, 0.690664, 0.685192
18.999314, 0.666046, 0.667100
19.245360, 0.642486, 0.647683
19.496540, 0.614757, 0.625126
19.753017, 0.578217, 0.593593
20.014960, 0.532695, 0.551107
20.282546, 0.497923, 0.515525
20.555959, 0.471010, 0.487646
20.835391, 0.441399, 0.456572
21.121044, 0.422025, 0.434135
21.413127, 0.414751, 0.423460
21.711860, 0.409619, 0.414797
22.017474, 0.405414, 0.407863
22.330207, 0.398914, 0.398976
22.650313, 0.398241, 0.394787
22.978055, 0.397968, 0.391804
23.313708, 0.416615, 0.406272
23.657565, 0.430239, 0.418113
24.009928, 0.431518, 0.417518
24.371118, 0.465398, 0.444616
24.741469, 0.514952, 0.488705
25.121337, 0.544411, 0.521147
25.511091, 0.551379, 0.536505
25.911123, 0.550081, 0.544796
26.321845, 0.531279, 0.537124
26.743691, 0.500876, 0.517455
27.177120, 0.464175, 0.491149
27.622614, 0.421399, 0.456623
28.080686, 0.376568, 0.418429
28.551875, 0.328229, 0.372651
29.036753, 0.295134, 0.335957
29.535925, 0.276264, 0.311724
30.050033, 0.280348, 0.312518
30.579756, 0.286934, 0.322436
31.125819, 0.281930, 0.323826
31.688988, 0.269426, 0.319454
32.270081, 0.245527, 0.304334
32.869965, 0.203839, 0.271886
33.489569, 0.152447, 0.223579
34.129881, 0.087374, 0.136550
34.791957, 0.032864, 0.048164
35.476924, 0.007706, 0.009872
36.185992, 0.003024, 0.004762
36.920456, 0.001699, 0.002180
37.681703, 0.001138, 0.001289
38.471227, 0.000778, 0.000865
39.290634, 0.000561, 0.000614
40.141651, 0.000402, 0.000440
41.026145, 0.000290, 0.000312
41.946131, 0.000232, 0.000250
42.903788, 0.000201, 0.000215
