# energy, eels_NLFC_w, eels_LFC_w
0.000000, -0.000000, 0.000000
0.010021, 0.000725, 0.000274
0.020083, 0.001392, 0.000541
0.030188, 0.002006, 0.000811
0.040334, 0.002545, 0.001080
0.050523, 0.002895, 0.001292
0.060755, 0.003030, 0.001433
0.071030, 0.003127, 0.001595
0.081348, 0.003313, 0.001841
0.091709, 0.003522, 0.002065
0.102115, 0.003667, 0.002137
0.112564, 0.003776, 0.002125
0.123058, 0.003904, 0.002160
0.133597, 0.004116, 0.002308
0.144181, 0.004433, 0.002551
0.154809, 0.004764, 0.002823
0.165484, 0.005020, 0.003096
0.176204, 0.005282, 0.003393
0.186970, 0.005558, 0.003624
0.197783, 0.005733, 0.003655
0.208642, 0.005785, 0.003585
0.219549, 0.005865, 0.003595
0.230502, 0.006103, 0.003746
0.241504, 0.006518, 0.004036
0.252553, 0.007034, 0.004399
0.263651, 0.007566, 0.004785
0.274797, 0.008040, 0.005080
0.285992, 0.008423, 0.005158
0.297237, 0.008812, 0.005153
0.308531, 0.009273, 0.005229
0.319874, 0.009820, 0.005471
0.331268, 0.010320, 0.005806
0.342713, 0.010688, 0.006135
0.354208, 0.011077, 0.006543
0.365755, 0.011340, 0.006839
0.377353, 0.011529, 0.006970
0.389003, 0.011685, 0.007027
0.400706, 0.011571, 0.006942
0.412461, 0.011444, 0.006949
0.424269, 0.011673, 0.007214
0.436130, 0.012021, 0.007508
0.448045, 0.012516, 0.007940
0.460014, 0.012995, 0.008314
0.472038, 0.013257, 0.008396
0.484116, 0.013467, 0.008429
0.496249, 0.013543, 0.008479
0.508438, 0.013415, 0.008493
0.520683, 0.013431, 0.008676
0.532985, 0.013633, 0.008998
0.545343, 0.013871, 0.009368
0.557758, 0.013942, 0.009555
0.570230, 0.013799, 0.009456
0.582761, 0.013485, 0.009287
0.595349, 0.013369, 0.009338
0.607997, 0.013640, 0.009635
0.620704, 0.013950, 0.009947
0.633470, 0.014266, 0.010274
0.646296, 0.014739, 0.010553
0.659182, 0.015002, 0.010580
0.672130, 0.015148, 0.010592
0.685138, 0.015477, 0.010865
0.698208, 0.015780, 0.011218
0.711341, 0.015861, 0.011522
0.724535, 0.015776, 0.011713
0.737793, 0.015803, 0.011839
0.751115, 0.016096, 0.012074
0.764500, 0.016152, 0.012179
0.777949, 0.016206, 0.012487
0.791464, 0.016440, 0.013005
0.805044, 0.016555, 0.013330
0.818689, 0.016585, 0.013358
0.832401, 0.016757, 0.013498
0.846180, 0.017369, 0.013973
0.860025, 0.018112, 0.014427
0.873939, 0.018909, 0.015107
0.887921, 0.019203, 0.015575
0.901971, 0.019058, 0.015503
0.916091, 0.019128, 0.015564
0.930281, 0.019519, 0.016111
0.944540, 0.019947, 0.016506
0.958871, 0.020697, 0.017009
0.973273, 0.021761, 0.017745
0.987747, 0.022485, 0.018135
1.002293, 0.022770, 0.018391
1.016912, 0.023381, 0.019097
1.031604, 0.024207, 0.019799
1.046371, 0.024692, 0.020033
1.061212, 0.025188, 0.020430
1.076129, 0.025940, 0.021100
1.091121, 0.027052, 0.021912
1.106189, 0.028127, 0.022620
1.121335, 0.028548, 0.023086
1.136558, 0.028550, 0.023510
1.151859, 0.028726, 0.023891
1.167238, 0.029271, 0.024322
1.182697, 0.030329, 0.024848
1.198236, 0.032157, 0.025897
1.213856, 0.033715, 0.027470
1.229556, 0.033606, 0.028060
1.245339, 0.032525, 0.027725
1.261204, 0.032019, 0.027788
1.277152, 0.032755, 0.028320
1.293184, 0.034482, 0.029401
1.309300, 0.035550, 0.030517
1.325501, 0.035196, 0.030880
1.341788, 0.034877, 0.030711
1.358162, 0.034598, 0.030253
1.374622, 0.035215, 0.030264
1.391171, 0.036678, 0.031289
1.407807, 0.036979, 0.031627
1.424534, 0.036304, 0.030504
1.441350, 0.036095, 0.029271
1.458257, 0.037144, 0.028993
1.475255, 0.039100, 0.029731
1.492345, 0.040063, 0.030422
1.509529, 0.039254, 0.029970
1.526806, 0.039340, 0.029614
1.544177, 0.041123, 0.029964
1.561644, 0.043296, 0.030899
1.579207, 0.044973, 0.032209
1.596866, 0.044990, 0.032863
1.614623, 0.044852, 0.032911
1.632479, 0.045815, 0.032792
1.650434, 0.046292, 0.032146
1.668489, 0.047000, 0.031984
1.686644, 0.047562, 0.031901
1.704902, 0.046962, 0.031399
1.723262, 0.047120, 0.031138
1.741726, 0.047981, 0.030720
1.760294, 0.048225, 0.029901
1.778967, 0.049712, 0.029852
1.797746, 0.051443, 0.030206
1.816633, 0.051868, 0.030204
1.835627, 0.050360, 0.029231
1.854731, 0.049868, 0.028611
1.873944, 0.051489, 0.028936
1.893268, 0.053375, 0.029568
1.912703, 0.053738, 0.029877
1.932252, 0.052845, 0.029603
1.951914, 0.053603, 0.029733
1.971691, 0.055712, 0.030307
1.991583, 0.057811, 0.030996
2.011593, 0.058648, 0.031444
2.031720, 0.057388, 0.031006
2.051965, 0.058102, 0.031216
2.072331, 0.060332, 0.032003
2.092818, 0.061673, 0.032687
2.113426, 0.061465, 0.032905
2.134158, 0.062002, 0.033244
2.155014, 0.062871, 0.033438
2.175995, 0.064195, 0.033642
2.197103, 0.064647, 0.033800
2.218338, 0.064646, 0.033972
2.239702, 0.064428, 0.033941
2.261196, 0.065270, 0.034178
2.282821, 0.068615, 0.035285
2.304578, 0.071237, 0.036480
2.326469, 0.072312, 0.037216
2.348495, 0.070965, 0.036650
2.370657, 0.072350, 0.036815
2.392956, 0.077728, 0.038962
2.415393, 0.080332, 0.040673
2.437971, 0.075151, 0.038817
2.460690, 0.075938, 0.038651
2.483551, 0.084460, 0.041664
2.506556, 0.086681, 0.042747
2.529706, 0.082767, 0.041439
2.553003, 0.082596, 0.041436
2.576448, 0.085421, 0.042565
2.600042, 0.086906, 0.043293
2.623787, 0.087840, 0.043768
2.647684, 0.088536, 0.043996
2.671735, 0.089711, 0.044496
2.695942, 0.089909, 0.044725
2.720305, 0.089815, 0.044849
2.744826, 0.092715, 0.045785
2.769507, 0.097502, 0.047332
2.794350, 0.102305, 0.048889
2.819356, 0.109112, 0.051461
2.844526, 0.119481, 0.055589
2.869862, 0.131025, 0.059611
2.895367, 0.142208, 0.063308
2.921040, 0.150263, 0.066544
2.946886, 0.153025, 0.068149
2.972904, 0.152792, 0.068724
2.999096, 0.153987, 0.069110
3.025466, 0.158447, 0.071173
3.052013, 0.161264, 0.072966
3.078741, 0.162525, 0.073000
3.105650, 0.162370, 0.072236
3.132744, 0.161168, 0.072065
3.160023, 0.162804, 0.072838
3.187489, 0.167661, 0.074822
3.215145, 0.171532, 0.076413
3.242993, 0.174946, 0.077055
3.271034, 0.186476, 0.078988
3.299271, 0.201121, 0.083173
3.327705, 0.213525, 0.087896
3.356339, 0.226629, 0.092746
3.385174, 0.235164, 0.095352
3.414214, 0.239881, 0.097013
3.443459, 0.241948, 0.097667
3.472913, 0.245138, 0.098056
3.502577, 0.250778, 0.099524
3.532454, 0.257571, 0.101785
3.562546, 0.261249, 0.102945
3.592856, 0.263108, 0.103570
3.623385, 0.267936, 0.104645
3.654137, 0.278102, 0.107292
3.685113, 0.294903, 0.112848
3.716316, 0.307511, 0.117255
3.747749, 0.315437, 0.119814
3.779413, 0.332695, 0.124970
3.811313, 0.346998, 0.130263
3.843450, 0.358258, 0.134625
3.875826, 0.364737, 0.136762
3.908446, 0.379471, 0.141318
3.941311, 0.396224, 0.147714
3.974424, 0.408836, 0.153285
4.007788, 0.410005, 0.154754
4.041405, 0.410894, 0.154885
4.075280, 0.424934, 0.160092
4.109414, 0.432829, 0.165092
4.143812, 0.436005, 0.167903
4.178475, 0.439594, 0.170971
4.213406, 0.429783, 0.168867
4.248610, 0.428496, 0.169526
4.284089, 0.429652, 0.171260
4.319846, 0.429861, 0.171429
4.355886, 0.430079, 0.172397
4.392210, 0.423356, 0.171273
4.428822, 0.421092, 0.171515
4.465727, 0.420082, 0.173601
4.502927, 0.405035, 0.169786
4.540426, 0.402140, 0.171127
4.578228, 0.393054, 0.170009
4.616336, 0.386606, 0.168472
4.654754, 0.384936, 0.169203
4.693485, 0.375041, 0.166657
4.732535, 0.378456, 0.168712
4.771906, 0.372757, 0.167870
4.811602, 0.362334, 0.164578
4.851628, 0.349649, 0.157954
4.891989, 0.360485, 0.160451
4.932686, 0.367025, 0.163075
4.973727, 0.370199, 0.164745
5.015113, 0.379359, 0.169363
5.056851, 0.369342, 0.165553
5.098944, 0.391283, 0.172817
5.141398, 0.388449, 0.175039
5.184215, 0.385335, 0.175653
5.227403, 0.383341, 0.175867
5.270964, 0.377791, 0.174689
5.314904, 0.396723, 0.182536
5.359229, 0.414720, 0.190067
5.403942, 0.422152, 0.194034
5.449050, 0.443339, 0.202208
5.494558, 0.459243, 0.211119
5.540470, 0.446910, 0.212735
5.586792, 0.450607, 0.227777
5.633530, 0.441418, 0.236042
5.680689, 0.444432, 0.226931
5.728276, 0.455363, 0.222887
5.776295, 0.449155, 0.216965
5.824753, 0.434393, 0.212641
5.873656, 0.423053, 0.209155
5.923010, 0.428781, 0.208031
5.972822, 0.452062, 0.210834
6.023097, 0.474290, 0.213848
6.073842, 0.493292, 0.218482
6.125064, 0.499298, 0.219932
6.176770, 0.538737, 0.230243
6.228966, 0.537251, 0.231647
6.281660, 0.579401, 0.243759
6.334858, 0.599564, 0.254228
6.388569, 0.608427, 0.261793
6.442798, 0.635863, 0.273352
6.497555, 0.632321, 0.275160
6.552846, 0.650746, 0.282964
6.608680, 0.666831, 0.295756
6.665064, 0.648221, 0.292939
6.722006, 0.652635, 0.293506
6.779516, 0.670126, 0.300231
6.837602, 0.675838, 0.305017
6.896271, 0.685080, 0.309016
6.955534, 0.707632, 0.316887
7.015399, 0.715558, 0.322432
7.075875, 0.726345, 0.327930
7.136972, 0.766634, 0.348097
7.198700, 0.758383, 0.354375
7.261067, 0.754837, 0.355164
7.324085, 0.770722, 0.364469
7.387763, 0.773959, 0.372244
7.452112, 0.766775, 0.370563
7.517142, 0.784561, 0.379639
7.582865, 0.782910, 0.380971
7.649292, 0.790918, 0.383844
7.716433, 0.794013, 0.388235
7.784301, 0.786353, 0.389360
7.852907, 0.777541, 0.386677
7.922263, 0.787077, 0.393828
7.992383, 0.782655, 0.396443
8.063278, 0.787763, 0.401689
8.134961, 0.784163, 0.400657
8.207446, 0.790739, 0.396082
8.280746, 0.814338, 0.397126
8.354875, 0.851228, 0.407891
8.429847, 0.869742, 0.413984
8.505677, 0.884192, 0.416288
8.582379, 0.909768, 0.423643
8.659968, 0.931553, 0.430586
8.738461, 0.947797, 0.438298
8.817873, 0.944740, 0.442333
8.898219, 0.926564, 0.446502
8.979518, 0.906541, 0.446417
9.061785, 0.881475, 0.448829
9.145038, 0.837648, 0.435695
9.229295, 0.820679, 0.425973
9.314575, 0.837673, 0.419680
9.400896, 0.896362, 0.436346
9.488276, 0.937262, 0.454747
9.576737, 0.944391, 0.458546
9.666298, 0.946202, 0.457232
9.756979, 0.967981, 0.461336
9.848802, 1.002899, 0.478072
9.941788, 1.004990, 0.489627
10.035960, 0.981942, 0.486458
10.131341, 0.966895, 0.478733
10.227954, 0.953353, 0.467204
10.325822, 0.956064, 0.464310
10.424972, 0.967093, 0.476786
10.525427, 0.951350, 0.486959
10.627214, 0.921389, 0.484153
10.730360, 0.908217, 0.485780
10.834892, 0.888437, 0.478734
10.940837, 0.869479, 0.469024
11.048226, 0.865840, 0.464568
11.157088, 0.873614, 0.470464
11.267452, 0.878984, 0.482496
11.379352, 0.869957, 0.484484
11.492817, 0.849114, 0.478922
11.607883, 0.832200, 0.470420
11.724583, 0.829774, 0.470361
11.842952, 0.825636, 0.475457
11.963026, 0.813005, 0.474368
12.084842, 0.806204, 0.472867
12.208438, 0.801093, 0.476914
12.333854, 0.785963, 0.468903
12.461131, 0.771421, 0.450639
12.590309, 0.773711, 0.436656
12.721432, 0.774774, 0.436181
12.854544, 0.761434, 0.433428
12.989691, 0.752928, 0.429776
13.126919, 0.752752, 0.427430
13.266278, 0.758256, 0.428738
13.407816, 0.763436, 0.428914
13.551587, 0.766677, 0.431381
13.697642, 0.767294, 0.435731
13.846038, 0.770360, 0.435808
13.996830, 0.774367, 0.437491
14.150076, 0.782237, 0.438761
14.305839, 0.788077, 0.443589
14.464179, 0.783407, 0.445387
14.625162, 0.775656, 0.448459
14.788854, 0.780761, 0.447143
14.955324, 0.796782, 0.452151
15.124643, 0.802336, 0.455976
15.296886, 0.807794, 0.455595
15.472128, 0.817719, 0.462142
15.650449, 0.827515, 0.473206
15.831931, 0.833621, 0.486685
16.016658, 0.837667, 0.494806
16.204718, 0.839013, 0.503550
16.396202, 0.837305, 0.511770
16.591205, 0.832754, 0.521470
16.789824, 0.818784, 0.528855
16.992161, 0.808257, 0.534702
17.198322, 0.805076, 0.544144
17.408415, 0.794681, 0.556612
17.622555, 0.772511, 0.561636
17.840859, 0.752013, 0.562449
18.063450, 0.728515, 0.565703
18.290456, 0.707486, 0.562801
18.522009, 0.697717, 0.564998
18.758247, 0.689869, 0.575003
18.999314, 0.673213, 0.585949
19.245360, 0.646455, 0.594989
19.496540, 0.613999, 0.601155
19.753017, 0.573927, 0.599768
20.014960, 0.534489, 0.585706
20.282546, 0.496767, 0.564106
20.555959, 0.467308, 0.535784
20.835391, 0.443849, 0.507538
21.121044, 0.424764, 0.480921
21.413127, 0.411115, 0.456789
21.711860, 0.402356, 0.435526
22.017474, 0.400472, 0.421859
22.330207, 0.397399, 0.411735
22.650313, 0.393937, 0.398121
22.978055, 0.399706, 0.390003
23.313708, 0.412778, 0.390172
23.657565, 0.424181, 0.394210
24.009928, 0.428895, 0.394858
24.371118, 0.448762, 0.400090
24.741469, 0.492655, 0.420504
25.121337, 0.525987, 0.454892
25.511091, 0.542808, 0.488051
25.911123, 0.545416, 0.523424
26.321845, 0.524213, 0.552938
26.743691, 0.493630, 0.566936
27.177120, 0.461897, 0.578832
27.622614, 0.422931, 0.585613
28.080686, 0.375776, 0.580826
28.551875, 0.329774, 0.552091
29.036753, 0.301058, 0.506437
29.535925, 0.288801, 0.475646
30.050033, 0.283874, 0.458936
30.579756, 0.284345, 0.464495
31.125819, 0.280767, 0.477188
31.688988, 0.270234, 0.498117
32.270081, 0.245478, 0.519023
32.869965, 0.201144, 0.524950
33.489569, 0.149276, 0.486986
34.129881, 0.088287, 0.341673
34.791957, 0.034704, 0.123692
35.476924, 0.009255, 0.027261
36.185992, 0.003499, 0.027248
36.920456, 0.001882, 0.006674
37.681703, 0.001178, 0.002559
38.471227, 0.000812, 0.001527
39.290634, 0.000550, 0.000943
40.141651, 0.000385, 0.000588
41.026145, 0.000281, 0.000406
41.946131, 0.000229, 0.000321
42.903788, 0.000199, 0.000272
