# energy, eels_NLFC_w, eels_LFC_w
0.000000, -0.000000, -0.000000
0.010021, 0.000900, 0.000225
0.020083, 0.001747, 0.000441
0.030188, 0.002505, 0.000644
0.040334, 0.003105, 0.000822
0.050523, 0.003470, 0.000964
0.060755, 0.003637, 0.001074
0.071030, 0.003739, 0.001157
0.081348, 0.003849, 0.001207
0.091709, 0.003952, 0.001234
0.102115, 0.004140, 0.001295
0.112564, 0.004413, 0.001405
0.123058, 0.004680, 0.001533
0.133597, 0.005047, 0.001698
0.144181, 0.005454, 0.001859
0.154809, 0.005644, 0.001927
0.165484, 0.005658, 0.001927
0.176204, 0.005825, 0.001974
0.186970, 0.006235, 0.002116
0.197783, 0.006644, 0.002295
0.208642, 0.006838, 0.002422
0.219549, 0.007006, 0.002508
0.230502, 0.007419, 0.002621
0.241504, 0.008054, 0.002780
0.252553, 0.008661, 0.002923
0.263651, 0.009181, 0.003012
0.274797, 0.009967, 0.003155
0.285992, 0.011176, 0.003418
0.297237, 0.012554, 0.003744
0.308531, 0.013874, 0.004108
0.319874, 0.014754, 0.004418
0.331268, 0.015000, 0.004587
0.342713, 0.014971, 0.004656
0.354208, 0.014821, 0.004669
0.365755, 0.014641, 0.004727
0.377353, 0.014758, 0.004915
0.389003, 0.015022, 0.005154
0.400706, 0.015121, 0.005328
0.412461, 0.015118, 0.005435
0.424269, 0.015093, 0.005519
0.436130, 0.015109, 0.005579
0.448045, 0.015304, 0.005662
0.460014, 0.015581, 0.005743
0.472038, 0.015923, 0.005846
0.484116, 0.016172, 0.005952
0.496249, 0.016277, 0.006015
0.508438, 0.016418, 0.006092
0.520683, 0.016512, 0.006169
0.532985, 0.016652, 0.006305
0.545343, 0.016790, 0.006447
0.557758, 0.017195, 0.006637
0.570230, 0.017593, 0.006843
0.582761, 0.017451, 0.006854
0.595349, 0.017196, 0.006816
0.607997, 0.017134, 0.006822
0.620704, 0.016988, 0.006778
0.633470, 0.016933, 0.006786
0.646296, 0.017195, 0.006972
0.659182, 0.017794, 0.007305
0.672130, 0.017902, 0.007361
0.685138, 0.017784, 0.007281
0.698208, 0.017690, 0.007199
0.711341, 0.017400, 0.007022
0.724535, 0.017303, 0.007092
0.737793, 0.017735, 0.007417
0.751115, 0.018229, 0.007671
0.764500, 0.018742, 0.007857
0.777949, 0.019557, 0.008115
0.791464, 0.019971, 0.008127
0.805044, 0.019798, 0.008006
0.818689, 0.019843, 0.008148
0.832401, 0.020276, 0.008428
0.846180, 0.020345, 0.008432
0.860025, 0.020452, 0.008475
0.873939, 0.021014, 0.008774
0.887921, 0.021596, 0.008975
0.901971, 0.022376, 0.009235
0.916091, 0.022865, 0.009418
0.930281, 0.022607, 0.009269
0.944540, 0.022308, 0.009156
0.958871, 0.022519, 0.009332
0.973273, 0.022891, 0.009572
0.987747, 0.023375, 0.009813
1.002293, 0.023626, 0.009928
1.016912, 0.023661, 0.009930
1.031604, 0.023872, 0.010152
1.046371, 0.023856, 0.010385
1.061212, 0.023744, 0.010492
1.076129, 0.023842, 0.010620
1.091121, 0.024084, 0.010896
1.106189, 0.024529, 0.011183
1.121335, 0.025478, 0.011621
1.136558, 0.025823, 0.011820
1.151859, 0.025893, 0.011767
1.167238, 0.026415, 0.011890
1.182697, 0.026588, 0.011989
1.198236, 0.026180, 0.011694
1.213856, 0.026344, 0.011556
1.229556, 0.026542, 0.011604
1.245339, 0.027230, 0.011788
1.261204, 0.028729, 0.012243
1.277152, 0.028925, 0.012309
1.293184, 0.029156, 0.012374
1.309300, 0.029982, 0.012492
1.325501, 0.031006, 0.012629
1.341788, 0.032474, 0.013064
1.358162, 0.033286, 0.013491
1.374622, 0.033732, 0.013738
1.391171, 0.034263, 0.013888
1.407807, 0.035669, 0.014324
1.424534, 0.037252, 0.014691
1.441350, 0.038866, 0.015052
1.458257, 0.040298, 0.015664
1.475255, 0.040670, 0.016005
1.492345, 0.040497, 0.016015
1.509529, 0.040830, 0.016082
1.526806, 0.041898, 0.016253
1.544177, 0.043896, 0.016807
1.561644, 0.044907, 0.017363
1.579207, 0.043924, 0.017331
1.596866, 0.042661, 0.016966
1.614623, 0.043053, 0.017014
1.632479, 0.044952, 0.017388
1.650434, 0.047808, 0.018071
1.668489, 0.049880, 0.018729
1.686644, 0.049815, 0.018938
1.704902, 0.048811, 0.018919
1.723262, 0.047933, 0.018798
1.741726, 0.048310, 0.018544
1.760294, 0.051011, 0.018847
1.778967, 0.055452, 0.019955
1.797746, 0.058099, 0.020806
1.816633, 0.057397, 0.020839
1.835627, 0.054957, 0.020417
1.854731, 0.054235, 0.020235
1.873944, 0.057587, 0.020907
1.893268, 0.062937, 0.021975
1.912703, 0.066035, 0.022935
1.932252, 0.066299, 0.023283
1.951914, 0.066593, 0.023585
1.971691, 0.066614, 0.023909
1.991583, 0.067036, 0.024225
2.011593, 0.070150, 0.025130
2.031720, 0.074962, 0.026593
2.051965, 0.076921, 0.027652
2.072331, 0.076670, 0.028499
2.092818, 0.078103, 0.029770
2.113426, 0.079940, 0.030659
2.134158, 0.082977, 0.031362
2.155014, 0.087089, 0.031961
2.175995, 0.088814, 0.032380
2.197103, 0.090157, 0.033025
2.218338, 0.091510, 0.033531
2.239702, 0.090734, 0.033440
2.261196, 0.091514, 0.033637
2.282821, 0.095094, 0.034355
2.304578, 0.099488, 0.035552
2.326469, 0.101172, 0.036287
2.348495, 0.100534, 0.035995
2.370657, 0.100315, 0.035752
2.392956, 0.101637, 0.036222
2.415393, 0.104403, 0.037017
2.437971, 0.107014, 0.038194
2.460690, 0.109872, 0.039774
2.483551, 0.111243, 0.040300
2.506556, 0.110605, 0.039637
2.529706, 0.110242, 0.039379
2.553003, 0.112365, 0.040055
2.576448, 0.115139, 0.041088
2.600042, 0.116124, 0.041631
2.623787, 0.116842, 0.041779
2.647684, 0.116336, 0.041447
2.671735, 0.115629, 0.041165
2.695942, 0.117917, 0.041659
2.720305, 0.122360, 0.042771
2.744826, 0.124728, 0.043810
2.769507, 0.127110, 0.044816
2.794350, 0.128433, 0.044813
2.819356, 0.129234, 0.044805
2.844526, 0.128600, 0.044529
2.869862, 0.130247, 0.044809
2.895367, 0.133531, 0.045944
2.921040, 0.134232, 0.046479
2.946886, 0.133945, 0.046175
2.972904, 0.135056, 0.046288
2.999096, 0.138343, 0.046967
3.025466, 0.142592, 0.047877
3.052013, 0.143647, 0.048406
3.078741, 0.142389, 0.048377
3.105650, 0.146103, 0.049626
3.132744, 0.149469, 0.050498
3.160023, 0.155006, 0.051027
3.187489, 0.155161, 0.051184
3.215145, 0.150512, 0.051438
3.242993, 0.151068, 0.052123
3.271034, 0.151519, 0.051207
3.299271, 0.155701, 0.051557
3.327705, 0.158503, 0.051781
3.356339, 0.156383, 0.051989
3.385174, 0.160048, 0.053231
3.414214, 0.167929, 0.054002
3.443459, 0.171545, 0.054227
3.472913, 0.173450, 0.054161
3.502577, 0.176120, 0.054879
3.532454, 0.181343, 0.056090
3.562546, 0.188822, 0.057120
3.592856, 0.192756, 0.058333
3.623385, 0.193561, 0.058538
3.654137, 0.202984, 0.060267
3.685113, 0.211188, 0.062437
3.716316, 0.214925, 0.063811
3.747749, 0.219581, 0.065191
3.779413, 0.231825, 0.065855
3.811313, 0.239086, 0.066079
3.843450, 0.234020, 0.066591
3.875826, 0.231274, 0.066769
3.908446, 0.238579, 0.067664
3.941311, 0.245976, 0.069114
3.974424, 0.244908, 0.068893
4.007788, 0.242080, 0.067970
4.041405, 0.242133, 0.066831
4.075280, 0.253293, 0.067956
4.109414, 0.274741, 0.071545
4.143812, 0.300351, 0.077061
4.178475, 0.322575, 0.082976
4.213406, 0.337434, 0.086932
4.248610, 0.347444, 0.091231
4.284089, 0.356813, 0.095149
4.319846, 0.367905, 0.098317
4.355886, 0.376653, 0.101635
4.392210, 0.383925, 0.104698
4.428822, 0.385546, 0.106761
4.465727, 0.398575, 0.110708
4.502927, 0.406898, 0.114082
4.540426, 0.410919, 0.116983
4.578228, 0.407234, 0.117637
4.616336, 0.400974, 0.118204
4.654754, 0.401340, 0.119354
4.693485, 0.404685, 0.121165
4.732535, 0.405240, 0.122674
4.771906, 0.408417, 0.125782
4.811602, 0.397705, 0.126654
4.851628, 0.382142, 0.124004
4.891989, 0.375638, 0.121639
4.932686, 0.380535, 0.123843
4.973727, 0.371296, 0.122437
5.015113, 0.356981, 0.119219
5.056851, 0.351272, 0.118691
5.098944, 0.348784, 0.118794
5.141398, 0.341073, 0.117860
5.184215, 0.332790, 0.116415
5.227403, 0.327156, 0.115522
5.270964, 0.322512, 0.113720
5.314904, 0.325339, 0.112705
5.359229, 0.339863, 0.115694
5.403942, 0.345601, 0.117519
5.449050, 0.349434, 0.117933
5.494558, 0.370619, 0.122322
5.540470, 0.380455, 0.125165
5.586792, 0.387769, 0.126690
5.633530, 0.397492, 0.129108
5.680689, 0.409554, 0.133223
5.728276, 0.411378, 0.133874
5.776295, 0.422064, 0.134564
5.824753, 0.443689, 0.138643
5.873656, 0.454266, 0.144225
5.923010, 0.466186, 0.149781
5.972822, 0.482399, 0.158416
6.023097, 0.481984, 0.162376
6.073842, 0.492557, 0.169402
6.125064, 0.492835, 0.174634
6.176770, 0.490756, 0.176196
6.228966, 0.493647, 0.178383
6.281660, 0.499163, 0.181735
6.334858, 0.492967, 0.182203
6.388569, 0.499994, 0.186812
6.442798, 0.499507, 0.188981
6.497555, 0.490746, 0.192606
6.552846, 0.503456, 0.198522
6.608680, 0.537192, 0.209080
6.665064, 0.572045, 0.221038
6.722006, 0.576763, 0.228419
6.779516, 0.584850, 0.232834
6.837602, 0.594959, 0.244837
6.896271, 0.601211, 0.252139
6.955534, 0.612373, 0.250923
7.015399, 0.626836, 0.249725
7.075875, 0.629701, 0.254213
7.136972, 0.649117, 0.257024
7.198700, 0.675425, 0.259838
7.261067, 0.681813, 0.258945
7.324085, 0.712897, 0.264530
7.387763, 0.720670, 0.266635
7.452112, 0.737694, 0.269370
7.517142, 0.740862, 0.269235
7.582865, 0.742509, 0.268223
7.649292, 0.768200, 0.273631
7.716433, 0.756303, 0.269850
7.784301, 0.757156, 0.267516
7.852907, 0.746199, 0.262255
7.922263, 0.745664, 0.258363
7.992383, 0.759580, 0.259573
8.063278, 0.774249, 0.266056
8.134961, 0.774464, 0.265562
8.207446, 0.791247, 0.265870
8.280746, 0.809595, 0.266020
8.354875, 0.824056, 0.265422
8.429847, 0.848148, 0.269684
8.505677, 0.860058, 0.271774
8.582379, 0.885720, 0.275526
8.659968, 0.887300, 0.277481
8.738461, 0.876405, 0.280197
8.817873, 0.852707, 0.281179
8.898219, 0.816750, 0.280728
8.979518, 0.779355, 0.276715
9.061785, 0.758503, 0.267757
9.145038, 0.742111, 0.260046
9.229295, 0.710691, 0.254007
9.314575, 0.676904, 0.247918
9.400896, 0.653380, 0.242974
9.488276, 0.632504, 0.244895
9.576737, 0.630635, 0.240056
9.666298, 0.671173, 0.235944
9.756979, 0.722395, 0.238409
9.848802, 0.745450, 0.244721
9.941788, 0.732612, 0.252221
10.035960, 0.706401, 0.249264
10.131341, 0.700903, 0.250774
10.227954, 0.691803, 0.257894
10.325822, 0.662160, 0.265498
10.424972, 0.625010, 0.269399
10.525427, 0.593846, 0.274448
10.627214, 0.574454, 0.275242
10.730360, 0.555463, 0.277115
10.834892, 0.536971, 0.277655
10.940837, 0.526230, 0.279802
11.048226, 0.515425, 0.280304
11.157088, 0.497538, 0.280041
11.267452, 0.472727, 0.283901
11.379352, 0.448827, 0.288389
11.492817, 0.449070, 0.292421
11.607883, 0.461947, 0.292636
11.724583, 0.468610, 0.290844
11.842952, 0.470598, 0.292417
11.963026, 0.475388, 0.294004
12.084842, 0.481578, 0.294820
12.208438, 0.483778, 0.296524
12.333854, 0.484386, 0.298988
12.461131, 0.486126, 0.299177
12.590309, 0.486514, 0.296397
12.721432, 0.483352, 0.292313
12.854544, 0.482530, 0.287607
12.989691, 0.483990, 0.287730
13.126919, 0.481248, 0.285461
13.266278, 0.479726, 0.281597
13.407816, 0.483602, 0.281506
13.551587, 0.485930, 0.286659
13.697642, 0.485176, 0.288898
13.846038, 0.520166, 0.290485
13.996830, 0.627908, 0.293985
14.150076, 0.720021, 0.300046
14.305839, 0.753663, 0.305752
14.464179, 0.764480, 0.308117
14.625162, 0.799478, 0.313334
14.788854, 0.835151, 0.318870
14.955324, 0.863751, 0.321124
15.124643, 0.896120, 0.324938
15.296886, 0.931944, 0.329708
15.472128, 0.957472, 0.340194
15.650449, 0.979503, 0.345142
15.831931, 1.022102, 0.351809
16.016658, 1.051613, 0.363543
16.204718, 1.071131, 0.376331
16.396202, 1.090072, 0.388848
16.591205, 1.113905, 0.398503
16.789824, 1.135577, 0.411643
16.992161, 1.125047, 0.422810
17.198322, 1.126030, 0.435337
17.408415, 1.131983, 0.443684
17.622555, 1.151589, 0.451026
17.840859, 1.150956, 0.475813
18.063450, 1.127207, 0.499185
18.290456, 1.108922, 0.521817
18.522009, 1.081302, 0.542095
18.758247, 1.040585, 0.564792
18.999314, 0.995412, 0.582491
19.245360, 0.952198, 0.597312
19.496540, 0.904556, 0.612686
19.753017, 0.857796, 0.625470
20.014960, 0.792183, 0.654064
20.282546, 0.736840, 0.665389
20.555959, 0.697627, 0.661332
20.835391, 0.654601, 0.657192
21.121044, 0.619881, 0.644425
21.413127, 0.574465, 0.645587
21.711860, 0.536191, 0.638800
22.017474, 0.518370, 0.618896
22.330207, 0.504811, 0.597348
22.650313, 0.493103, 0.565343
22.978055, 0.502025, 0.542960
23.313708, 0.519634, 0.540268
23.657565, 0.528690, 0.554329
24.009928, 0.541858, 0.563897
24.371118, 0.563119, 0.567067
24.741469, 0.597386, 0.577210
25.121337, 0.640392, 0.600611
25.511091, 0.660866, 0.650096
25.911123, 0.653043, 0.699546
26.321845, 0.616615, 0.765005
26.743691, 0.550567, 0.835665
27.177120, 0.470525, 0.917520
27.622614, 0.391844, 0.998629
28.080686, 0.302014, 1.124100
28.551875, 0.217439, 1.194388
29.036753, 0.165318, 0.938352
29.535925, 0.135816, 0.665624
30.050033, 0.105225, 0.480256
30.579756, 0.082860, 0.339230
31.125819, 0.065433, 0.232780
31.688988, 0.046752, 0.145895
32.270081, 0.031836, 0.089996
32.869965, 0.023004, 0.065400
33.489569, 0.018441, 0.053024
34.129881, 0.015042, 0.043100
34.791957, 0.012976, 0.036068
35.476924, 0.010282, 0.029582
36.185992, 0.008292, 0.022646
36.920456, 0.007873, 0.019175
37.681703, 0.006775, 0.016193
38.471227, 0.005600, 0.013184
39.290634, 0.004512, 0.011197
40.141651, 0.002843, 0.006666
41.026145, 0.002388, 0.004189
41.946131, 0.001411, 0.002493
42.903788, 0.000760, 0.001296
43.901478, 0.000355, 0.000576
44.941766, 0.000188, 0.000305
46.027439, 0.000145, 0.000214
47.161533, 0.000118, 0.000155
48.347362, 0.000100, 0.000125
